Data Science in Oncology - Understanding Survival Rates
…
Rows: 1887 Columns: 5
── Column specification ────────────────────────────────────────────────────────
Delimiter: ","
chr (3): race, gender, cancer_type
dbl (2): survival_rate, year

ℹ Use `spec()` to retrieve the full column specification for this data.
ℹ Specify the column types or set `show_col_types = FALSE` to quiet this message.

five_yr

# A tibble: 1,887 × 5
   survival_rate  year race      gender  cancer_type
           <dbl> <dbl> <chr>     <chr>   <chr>      
 1         0.559  1977 All races females All cancers
 2         0.55   1980 All races females All cancers
 3         0.551  1983 All races females All cancers
 4         0.576  1986 All races females All cancers
 5         0.596  1989 All races females All cancers
 6         0.609  1992 All races females All cancers
 7         0.618  1995 All races females All cancers
 8         0.511  1989 All races males   All cancers
 9         0.591  1992 All races males   All cancers
10         0.608  1995 All races males   All cancers
# ℹ 1,877 more rows
…
In this table, the percent of people who survive leukemia has increased by the value in the rightmost column. We can think of this as an “improvement in outcomes” measure over time. Let’s do this for all cancers:

five_yr %>%
    filter(!is.na(survival_rate)) %>%
    group_by(race, gender, cancer_type) %>%
    summarise(survival_rate_change = last(survival_rate) - first(survival_rate)) %>%
    arrange(survival_rate_change)

`summarise()` has grouped output by 'race', 'gender'. You can override using
the `.groups` argument.

# A tibble: 141 × 4
# Groups:   race, gender [9]
   race      gender  cancer_type       survival_rate_change
   <chr>     <chr>   <chr>                            <dbl>
 1 Black     females Skin                          -0.146  
 2 Black     males   Skin                          -0.0710 
 3 All races males   All cancers                   -0.0390 
 4 All races females Cervix uteri                  -0.00300
 5 All races total   Cervix uteri                  -0.00300
 6 Black     total   All cancers                    0.00200
 7 Black     females Pancreas                       0.047  
 8 All races males   Thyroid                        0.0510 
 9 All races males   Lung and bronchus              0.055  
10 All races males   Bladder                        0.0550 
# ℹ 131 more rows
…
