Data Science in Oncology - Simple Lung Cancer Classifier
…
tune_res %>%
    collect_metrics() %>%
    filter(.metric == "f_meas") %>%
    arrange(-mean)

# A tibble: 50 × 8
       cost  margin .metric .estimator  mean     n std_err .config              
      <dbl>   <dbl> <chr>   <chr>      <dbl> <int>   <dbl> <chr>                
 1  0.0595  0.0157  f_meas  binary     0.435     8  0.110  Preprocessor1_Model32
 2  0.932   0.112   f_meas  binary     0.408     7  0.102  Preprocessor1_Model19
 3 24.6     0.194   f_meas  binary     0.388    10  0.102  Preprocessor1_Model16
 4  0.641   0.0502  f_meas  binary     0.388     9  0.0989 Preprocessor1_Model14
 5  0.00602 0.145   f_meas  binary     0.374     9  0.0959 Preprocessor1_Model33
 6  0.104   0.152   f_meas  binary     0.362     7  0.0489 Preprocessor1_Model36
 7  6.29    0.0538  f_meas  binary     0.347    10  0.0891 Preprocessor1_Model03
 8  0.199   0.179   f_meas  binary     0.344     9  0.0969 Preprocessor1_Model18
 9  0.00434 0.00752 f_meas  binary     0.343     8  0.0981 Preprocessor1_Model17
10  2.40    0.00953 f_meas  binary     0.343     8  0.0977 Preprocessor1_Model37
# ℹ 40 more rows
…
